{
  "format": {
    "version": {
      "major": 0,
      "minor": 1
    }
  },
  "locales": [
    "de_DE.ISO-8859-1",
    "it_IT.UTF-8",
    "de_DE.UTF-8",
    "en_US.ISO-8859-1",
    "en_XX.UTF-8",
    "en_US.UTF-8",
    "bokmal",
    "bokmål",
    "C",
    "C.UTF-8"
  ],
  "languages": [
    {
      "env": {
        "LC_ALL": "bg_BG.UTF-8",
        "LC_MONETARY": "en_US.UTF-8",
        "LANG": "en_US.ISO-8859-1",
        "LC_NAME": "ru_RU.UTF-8"
      },
      "expected": ["bg", "ru", "en", "C"]
    },
    {
      "env": {
        "LC_ALL": "bg_BG.UTF-8",
        "LC_MONETARY": "en_US.UTF-8",
        "LANG": "en_US.UTF-8",
        "LC_NAME": "ru_RU.UTF-8"
      },
      "expected": ["bg", "en", "ru", "C"]
    }
  ]
}
